<?xml version="1.0" encoding="utf-8"?>
<!-- Generator: Adobe Illustrator 18.1.1, SVG Export Plug-In . SVG Version: 6.00 Build 0)  -->
<svg version="1.1" id="Layer_1" xmlns="http://www.w3.org/2000/svg" xmlns:xlink="http://www.w3.org/1999/xlink" x="0px" y="0px"
	 viewBox="0 0 134.1 134.5" enable-background="new 0 0 134.1 134.5" xml:space="preserve">
<polygon fill-rule="evenodd" clip-rule="evenodd" fill="#8BC63F" points="43.8,50.4 87.5,86.4 0,86.4 "/>
<polygon fill-rule="evenodd" clip-rule="evenodd" fill="#D8D1E8" points="95.3,54.5 134.1,86.5 91.5,86.5 74,72 "/>
</svg>
